{
  "project_info": {
    "project_number": "264147088280",
    "firebase_url": "https://freeweights-89150.firebaseio.com",
    "project_id": "freeweights-89150",
    "storage_bucket": "freeweights-89150.appspot.com"
  },
  "client": [
    {
      "client_info": {
        "mobilesdk_app_id": "1:264147088280:android:614d4e86eae2130a",
        "android_client_info": {
          "package_name": "com.dvisionllp.gym"
        }
      },
      "oauth_client": [
        {
          "client_id": "264147088280-nhmckoq783etstqhptgraqia420q26fu.apps.googleusercontent.com",
          "client_type": 3
        }
      ],
      "api_key": [
        {
          "current_key": "AIzaSyA1x9ej3CTTJLnGuGYPBJBHQlUpzKMpCHw"
        }
      ],
      "services": {
        "appinvite_service": {
          "other_platform_oauth_client": [
            {
              "client_id": "264147088280-nhmckoq783etstqhptgraqia420q26fu.apps.googleusercontent.com",
              "client_type": 3
            },
            {
              "client_id": "264147088280-q4r1lenifg4bcbbup29ck4p8bctsvljo.apps.googleusercontent.com",
              "client_type": 2,
              "ios_info": {
                "bundle_id": "com.dvisionllp.gym"
              }
            }
          ]
        }
      }
    }
  ],
  "configuration_version": "1"
}